sim.vcd
$date
	Mon Sep 18 13:28:48 2023
$end
$version
	Icarus Verilog
$end
$timescale
	1ps
$end
$scope module fft_top_tb $end
$var wire 16 ! out_real [15:0] $end
$var wire 1 " out_push $end
$var wire 16 # out_imag [15:0] $end
$var wire 1 $ in_stall $end
$var reg 1 % clk $end
$var reg 16 & in_imag [15:0] $end
$var reg 1 ' in_push $end
$var reg 16 ( in_real [15:0] $end
$var reg 1 ) out_stall $end
$var reg 1 * reset $end
$var integer 32 + i [31:0] $end
$scope module fft_top_0 $end
$var wire 1 % clk $end
$var wire 16 , in_imag [15:0] $end
$var wire 1 ' in_push $end
$var wire 16 - in_real [15:0] $end
$var wire 1 ) out_stall $end
$var wire 1 * reset $end
$var wire 1 . write_en_2 $end
$var wire 1 / write_en_1 $end
$var wire 32 0 write_data_1 [31:0] $end
$var wire 1 1 write_back $end
$var wire 4 2 write_addr_2 [3:0] $end
$var wire 4 3 write_addr_1 [3:0] $end
$var wire 32 4 read_data_2 [31:0] $end
$var wire 32 5 read_data_1 [31:0] $end
$var wire 4 6 read_addr_2 [3:0] $end
$var wire 4 7 read_addr_1 [3:0] $end
$var wire 1 8 out_push $end
$var wire 32 9 muxed_write_data_1 [31:0] $end
$var wire 1 $ in_stall $end
$var wire 32 : Y [31:0] $end
$var wire 32 ; X [31:0] $end
$var wire 3 < W_addr [2:0] $end
$var wire 32 = W [31:0] $end
$var reg 16 > out_imag_F [15:0] $end
$var reg 1 " out_push_F $end
$var reg 16 ? out_real_F [15:0] $end
$scope module butterfly_0 $end
$var wire 16 @ Ai [15:0] $end
$var wire 16 A Ar [15:0] $end
$var wire 16 B Bi [15:0] $end
$var wire 16 C Br [15:0] $end
$var wire 16 D Wi [15:0] $end
$var wire 16 E Wr [15:0] $end
$var wire 1 % clk $end
$var parameter 32 F NBITS $end
$var reg 16 G Ai_F [15:0] $end
$var reg 16 H Ai_Fd2 [15:0] $end
$var reg 16 I Ar_F [15:0] $end
$var reg 16 J Ar_Fd2 [15:0] $end
$var reg 16 K Bi_F [15:0] $end
$var reg 16 L Br_F [15:0] $end
$var reg 16 M Wi_F [15:0] $end
$var reg 16 N Wr_F [15:0] $end
$var reg 16 O Xi_F [15:0] $end
$var reg 32 P Xi_full_F [31:0] $end
$var reg 16 Q Xr_F [15:0] $end
$var reg 32 R Xr_full_F [31:0] $end
$var reg 16 S Yi_F [15:0] $end
$var reg 32 T Yi_full_F [31:0] $end
$var reg 16 U Yr_F [15:0] $end
$var reg 32 V Yr_full_F [31:0] $end
$var reg 30 W Zia_F [29:0] $end
$var reg 31 X Ziadd [30:0] $end
$var reg 30 Y Zib_F [29:0] $end
$var reg 30 Z Zra_F [29:0] $end
$var reg 30 [ Zrb_F [29:0] $end
$var reg 31 \ Zrsub [30:0] $end
$scope function saturate $end
$var reg 32 ] value [31:0] $end
$upscope $end
$upscope $end
$scope module fft_ctrl_sm_0 $end
$var wire 1 % clk $end
$var wire 16 ^ in_imag [15:0] $end
$var wire 1 ' in_push $end
$var wire 16 _ in_real [15:0] $end
$var wire 1 ) out_stall $end
$var wire 1 * reset $end
$var wire 3 ` W_addr [2:0] $end
$var wire 4 a B_addr [3:0] $end
$var wire 4 b A_addr [3:0] $end
$var parameter 5 c READ_AND_STORE $end
$var parameter 5 d RX_AND_READ $end
$var parameter 5 e RX_ONLY $end
$var parameter 5 f TX_AND_STORE $end
$var parameter 5 g TX_ONLY $end
$var reg 4 h A_addr_F [3:0] $end
$var reg 4 i A_addr_Fd2 [3:0] $end
$var reg 4 j A_addr_Fd3 [3:0] $end
$var reg 4 k A_addr_Fd4 [3:0] $end
$var reg 4 l B_addr_F [3:0] $end
$var reg 4 m B_addr_Fd2 [3:0] $end
$var reg 4 n B_addr_Fd3 [3:0] $end
$var reg 4 o B_addr_Fd4 [3:0] $end
$var reg 3 p W_addr_F [2:0] $end
$var reg 3 q butterfly [2:0] $end
$var reg 3 r butterfly_F [2:0] $end
$var reg 4 s counter [3:0] $end
$var reg 4 t counter_F [3:0] $end
$var reg 5 u current_state_F [4:0] $end
$var reg 1 v in_stall $end
$var reg 1 $ in_stall_F $end
$var reg 5 w next_state [4:0] $end
$var reg 1 x out_push $end
$var reg 1 8 out_push_F $end
$var reg 4 y read_addr_1 [3:0] $end
$var reg 4 z read_addr_1_F [3:0] $end
$var reg 4 { read_addr_2 [3:0] $end
$var reg 4 | read_addr_2_F [3:0] $end
$var reg 1 } skip $end
$var reg 1 ~ skip_F $end
$var reg 1 !" skip_Fd2 $end
$var reg 1 "" skip_Fd3 $end
$var reg 1 #" skip_Fd4 $end
$var reg 2 $" stage [1:0] $end
$var reg 2 %" stage_F [1:0] $end
$var reg 4 &" write_addr_1 [3:0] $end
$var reg 4 '" write_addr_1_F [3:0] $end
$var reg 4 (" write_addr_2 [3:0] $end
$var reg 4 )" write_addr_2_F [3:0] $end
$var reg 1 *" write_back $end
$var reg 1 1 write_back_F $end
$var reg 32 +" write_data_1 [31:0] $end
$var reg 32 ," write_data_1_F [31:0] $end
$var reg 1 -" write_en_1 $end
$var reg 1 / write_en_1_F $end
$var reg 1 ." write_en_2 $end
$var reg 1 . write_en_2_F $end
$scope module read_addr_lut_0 $end
$var wire 3 /" butterfly [2:0] $end
$var wire 2 0" stage [1:0] $end
$var reg 4 1" A_addr [3:0] $end
$var reg 4 2" B_addr [3:0] $end
$var reg 3 3" W_addr [2:0] $end
$upscope $end
$upscope $end
$scope module mem_32x16_0 $end
$var wire 1 % clk $end
$var wire 4 4" read_addr_1 [3:0] $end
$var wire 4 5" read_addr_2 [3:0] $end
$var wire 32 6" read_data_1 [31:0] $end
$var wire 32 7" read_data_2 [31:0] $end
$var wire 4 8" write_addr_1 [3:0] $end
$var wire 4 9" write_addr_2 [3:0] $end
$var wire 32 :" write_data_1 [31:0] $end
$var wire 32 ;" write_data_2 [31:0] $end
$var wire 1 / write_en_1 $end
$var wire 1 . write_en_2 $end
$upscope $end
$scope module w_lut_0 $end
$var wire 3 <" addr [2:0] $end
$var reg 32 =" W [31:0] $end
$upscope $end
$upscope $end
$scope begin RECORD_INPUT $end
$var integer 32 >" count [31:0] $end
$var integer 32 ?" input_file [31:0] $end
$upscope $end
$scope begin RECORD_OUTPUT $end
$var integer 32 @" count [31:0] $end
$var integer 32 A" output_file [31:0] $end
$upscope $end
$upscope $end
$enddefinitions $end
$comment Show the parameter values. $end
$dumpall
b10000 g
b1000 f
b1 e
b10 d
b100 c
b10000 F
$end
#0
$dumpvars
b10 A"
b0 @"
b10000000000000000000000000000011 ?"
b0 >"
bx ="
bx <"
bx ;"
bx :"
bx 9"
bx 8"
bx 7"
bx 6"
bx 5"
bx 4"
bx 3"
bx 2"
bx 1"
bx 0"
bx /"
x."
x-"
bx ,"
bx +"
x*"
bx )"
bx ("
bx '"
bx &"
bx %"
bx $"
x#"
x""
x!"
x~
x}
bx |
bx {
bx z
bx y
xx
bx w
xv
bx u
bx t
bx s
bx r
bx q
bx p
bx o
bx n
bx m
bx l
bx k
bx j
bx i
bx h
bx b
bx a
bx `
bx _
bx ^
bx ]
bx \
bx [
bx Z
bx Y
bx X
bx W
bx V
bx U
bx T
bx S
bx R
bx Q
bx P
bx O
bx N
bx M
bx L
bx K
bx J
bx I
bx H
bx G
bx E
bx D
bx C
bx B
bx A
bx @
bx ?
bx >
bx =
bx <
bx ;
bx :
bx 9
x8
bx 7
bx 6
bx 5
bx 4
bx 3
bx 2
x1
bx 0
x/
x.
bx -
bx ,
bx +
x*
x)
bx (
x'
bx &
1%
x$
bx #
x"
bx !
$end
#2000
0%
#4000
1*
1%
#6000
0%
#8000
b0 9
b0 :"
b0 D
b100000000000000 E
b0 `
b0 3"
b1000 a
b1000 2"
b0 b
b0 1"
b1000000000000000000000000000000 =
b1000000000000000000000000000000 ="
0}
b0 q
b0 $"
b0 s
0x
0*"
0."
b0 ("
0-"
b0 +"
b0 &"
b0 {
b0 y
0v
b1 w
0#"
0""
0!"
0~
b0 r
b0 /"
b0 %"
b0 0"
b0 t
08
01
0.
b0 2
b0 )"
b0 9"
0/
b0 0
b0 ,"
b0 3
b0 '"
b0 8"
b0 <
b0 p
b0 <"
b0 6
b0 |
b0 5"
b0 7
b0 z
b0 4"
1$
b1 u
1%
#10000
0%
#12000
0"
b0 M
b100000000000000 N
0v
0)
b0 &
b0 ,
b0 ^
b0 (
b0 -
b0 _
0'
0*
1%
#14000
0%
#16000
b1 s
1-"
b1111111111111110000000000000000 +"
b1000 l
b0 h
0$
0v
b111111111111111 (
b111111111111111 -
b111111111111111 _
1'
b0 +
1%
#18000
b1 >"
0%
#20000
b1 &"
b1111111111111110000000000000000 9
b1111111111111110000000000000000 :"
b1000 m
b0 i
b1 t
1/
b1111111111111110000000000000000 0
b1111111111111110000000000000000 ,"
b10 s
1-"
b0 +"
0v
b0 (
b0 -
b0 _
b1 +
1%
#22000
b10 >"
0%
#24000
b0 9
b0 :"
b11 s
b10 &"
1-"
0v
b0 @
b111111111111111 A
b0 B
b111111111111111 C
b1000 n
b0 j
b10 t
b0 0
b0 ,"
b1 3
b1 '"
b1 8"
b1111111111111110000000000000000 5
b1111111111111110000000000000000 6"
b1111111111111110000000000000000 4
b1111111111111110000000000000000 7"
b10 +
1%
#26000
b11 >"
0%
#28000
b100 s
b11 &"
1-"
0v
b0 #
b0 >
b111111111111111 !
b111111111111111 ?
b0 K
b111111111111111 L
b0 G
b111111111111111 I
b1000 o
b0 k
b11 t
b10 3
b10 '"
b10 8"
b11 +
1%
#30000
b100 >"
0%
#32000
b101 s
b100 &"
1-"
0v
b0 X
b111111111111111000000000000 \
b100 t
b11 3
b11 '"
b11 8"
b0 Y
b0 W
b0 [
b111111111111111000000000000 Z
b0 H
b111111111111111 J
b100 +
1%
#34000
b101 >"
0%
#36000
b110 s
b101 &"
1-"
0v
b0 T
b0 V
b0 P
b1111111111111110000000000000 R
b101 t
b100 3
b100 '"
b100 8"
b101 +
1%
#38000
b110 >"
0%
#40000
b111 s
b110 &"
1-"
0v
b110 t
b101 3
b101 '"
b101 8"
b0 S
b0 :
b0 ;"
b0 U
b0 O
b1111111111111110000000000000000 ;
b111111111111111 Q
b0 ]
b110 +
1%
#42000
b111 >"
0%
#44000
b1000 s
b111 &"
1-"
0v
b111 t
b110 3
b110 '"
b110 8"
b111 +
b0 ]
1%
#46000
b1000 >"
0%
#48000
b1001 s
b1000 &"
1-"
0v
b1000 t
b111 3
b111 '"
b111 8"
b0 ]
b1000 +
1%
#50000
b1001 >"
0%
#52000
b1010 s
b1001 &"
1-"
0v
b1001 t
b1000 3
b1000 '"
b1000 8"
b1001 +
b0 ]
1%
#54000
b1010 >"
0%
#56000
b1011 s
b1010 &"
1-"
0v
b1010 t
b1001 3
b1001 '"
b1001 8"
b0 ]
b1010 +
1%
#58000
b1011 >"
0%
#60000
b10 w
b1100 s
b1011 &"
1-"
0v
b1011 t
b1010 3
b1010 '"
b1010 8"
b1011 +
b0 ]
1%
#62000
b1100 >"
0%
#64000
b1 q
b1000 {
b1101 s
b1100 &"
1-"
0v
b1100 t
b1011 3
b1011 '"
b1011 8"
b10 u
b0 ]
b1100 +
1%
#66000
b1101 >"
0%
#68000
b1100 {
b100 y
b1100 a
b1100 2"
b100 b
b100 1"
b10 q
b1110 s
b1101 &"
1-"
0v
b0 C
b1 r
b1 /"
b1101 t
b1100 3
b1100 '"
b1100 8"
b0 4
b0 7"
b1000 6
b1000 |
b1000 5"
b1101 +
b0 ]
1%
#70000
b1110 >"
0%
#72000
b1010 {
b10 y
b1010 a
b1010 2"
b10 b
b10 1"
b11 q
b1111 s
b1110 &"
1-"
0v
b0 A
b1100 l
b100 h
b10 r
b10 /"
b1110 t
b1101 3
b1101 '"
b1101 8"
b1100 6
b1100 |
b1100 5"
b0 5
b0 6"
b100 7
b100 z
b100 4"
b0 L
b0 ]
b1110 +
1%
#74000
b1111 >"
0%
#76000
b1110 {
b110 y
b0 \
b1110 a
b1110 2"
b110 b
b110 1"
b100 w
b100 q
b0 s
b1111 &"
1-"
1v
b0 !
b0 ?
b0 Z
b0 I
b1100 m
b1010 l
b100 i
b10 h
b11 r
b11 /"
b1111 t
b1110 3
b1110 '"
b1110 8"
b1010 6
b1010 |
b1010 5"
b10 7
b10 z
b10 4"
b1111 +
b0 ]
1%
#78000
b10000 >"
0%
#80000
b1001 a
b1001 2"
b1 b
b1 1"
1*"
1."
b1000 ("
b1100 n
b1010 m
b1110 l
b100 j
b10 i
b110 h
b100 r
b100 /"
b0 t
b1111 3
b1111 '"
b1111 8"
b1110 6
b1110 |
b1110 5"
b110 7
b110 z
b110 4"
1$
b100 u
b111111111111111000000000000 V
b111111111111111000000000000 R
b0 J
1v
b101 q
b0 s
1-"
b0 &"
b1001 {
b1 y
b100 w
b0 ]
0'
b10000 +
1%
#82000
0%
#84000
b1101 {
b101 y
b111111111111110000000000000000 9
b111111111111110000000000000000 :"
b1101 a
b1101 2"
b101 b
b101 1"
b1100 ("
b100 &"
b110 q
1*"
1."
1-"
b111111111111110000000000000000 :
b111111111111110000000000000000 ;"
b11111111111111 U
b111111111111110000000000000000 ;
b11111111111111 Q
b0 V
b0 R
b1100 o
b1010 n
b1110 m
b1001 l
b100 k
b10 j
b110 i
b1 h
b101 r
b101 /"
11
1.
b1000 2
b1000 )"
b1000 9"
b0 3
b0 '"
b0 8"
b1001 6
b1001 |
b1001 5"
b1 7
b1 z
b1 4"
b0 +
b0 ]
1%
#86000
0%
#88000
b1011 {
b11 y
b1011 a
b1011 2"
b11 b
b11 1"
b1010 ("
b10 &"
b111 q
1*"
1."
1-"
b0 9
b0 :"
b1010 o
b1110 n
b1001 m
b1101 l
b10 k
b110 j
b1 i
b101 h
b110 r
b110 /"
b1100 2
b1100 )"
b1100 9"
b100 3
b100 '"
b100 8"
b1101 6
b1101 |
b1101 5"
b101 7
b101 z
b101 4"
b0 :
b0 ;"
b0 U
b0 ;
b0 Q
1%
#90000
0%
#92000
b1111 {
b111 y
b1111 a
b1111 2"
b111 b
b111 1"
b1 $"
b1110 ("
b110 &"
b0 q
1*"
1."
1-"
b1110 o
b1001 n
b1101 m
b1011 l
b110 k
b1 j
b101 i
b11 h
b111 r
b111 /"
b1010 2
b1010 )"
b1010 9"
b10 3
b10 '"
b10 8"
b1011 6
b1011 |
b1011 5"
b11 7
b11 z
b11 4"
1%
#94000
0%
#96000
b100 {
b0 y
b100 a
b100 2"
b0 b
b0 1"
b1001 ("
b1 &"
b1 q
1*"
1."
1-"
b1001 o
b1101 n
b1011 m
b1111 l
b1 k
b101 j
b11 i
b111 h
b0 r
b0 /"
b1 %"
b1 0"
b1110 2
b1110 )"
b1110 9"
b110 3
b110 '"
b110 8"
b1111 6
b1111 |
b1111 5"
b111 7
b111 z
b111 4"
1%
#98000
0%
#100000
b1100 {
b1000 y
b100 `
b100 3"
b1100 a
b1100 2"
b1000 b
b1000 1"
b1101 ("
b101 &"
b10 q
1*"
1."
1-"
b11111111111111 A
b1101 o
b1011 n
b1111 m
b100 l
b101 k
b11 j
b111 i
b0 h
b1 r
b1 /"
b1001 2
b1001 )"
b1001 9"
b1 3
b1 '"
b1 8"
b100 6
b100 |
b100 5"
b111111111111110000000000000000 5
b111111111111110000000000000000 6"
b0 7
b0 z
b0 4"
1%
#102000
0%
#104000
b110 {
b10 y
b1100000000000000 D
b0 E
b0 `
b0 3"
b110 a
b110 2"
b10 b
b10 1"
b1100000000000000 =
b1100000000000000 ="
b1011 ("
b11 &"
b11 q
1*"
1."
1-"
b1011 o
b1111 n
b100 m
b1100 l
b11 k
b111 j
b0 i
b1000 h
b10 r
b10 /"
b1101 2
b1101 )"
b1101 9"
b101 3
b101 '"
b101 8"
b100 <
b100 p
b100 <"
b1100 6
b1100 |
b1100 5"
b1000 7
b1000 z
b1000 4"
b11111111111111 I
b11111111111111 !
b11111111111111 ?
1%
#106000
0%
#108000
b1110 {
b1010 y
b0 D
b100000000000000 E
b100 `
b100 3"
b1110 a
b1110 2"
b1010 b
b1010 1"
b1000000000000000000000000000000 =
b1000000000000000000000000000000 ="
b1111 ("
b111 &"
b100 q
1*"
1."
1-"
b0 A
b11111111111111 J
b1100000000000000 M
b0 N
b1111 o
b100 n
b1100 m
b110 l
b111 k
b0 j
b1000 i
b10 h
b11 r
b11 /"
b1011 2
b1011 )"
b1011 9"
b11 3
b11 '"
b11 8"
b0 <
b0 p
b0 <"
b110 6
b110 |
b110 5"
b0 5
b0 6"
b10 7
b10 z
b10 4"
1%
#110000
0%
#112000
b101 {
b1 y
b1100000000000000 D
b0 E
b0 `
b0 3"
b101 a
b101 2"
b1 b
b1 1"
b1100000000000000 =
b1100000000000000 ="
b100 ("
b0 &"
b101 q
1*"
1."
1-"
b100 o
b1100 n
b110 m
b1110 l
b0 k
b1000 j
b10 i
b1010 h
b100 r
b100 /"
b1111 2
b1111 )"
b1111 9"
b111 3
b111 '"
b111 8"
b100 <
b100 p
b100 <"
b1110 6
b1110 |
b1110 5"
b1010 7
b1010 z
b1010 4"
b11111111111111000000000000 V
b11111111111111000000000000 R
b0 M
b100000000000000 N
b0 I
b0 !
b0 ?
1%
#114000
0%
#116000
b1101 {
b1001 y
b0 D
b100000000000000 E
b11111111111110000000000000000 9
b11111111111110000000000000000 :"
b100 `
b100 3"
b1101 a
b1101 2"
b1001 b
b1001 1"
b1000000000000000000000000000000 =
b1000000000000000000000000000000 ="
b1100 ("
b1000 &"
b110 q
1*"
1."
1-"
b11111111111110000000000000000 :
b11111111111110000000000000000 ;"
b1111111111111 U
b11111111111110000000000000000 ;
b1111111111111 Q
b0 J
b1100000000000000 M
b0 N
b1100 o
b110 n
b1110 m
b101 l
b1000 k
b10 j
b1010 i
b1 h
b101 r
b101 /"
b100 2
b100 )"
b100 9"
b0 3
b0 '"
b0 8"
b0 <
b0 p
b0 <"
b101 6
b101 |
b101 5"
b1 7
b1 z
b1 4"
b0 ]
1%
#118000
0%
#120000
b111 {
b11 y
b1100000000000000 D
b0 E
b0 `
b0 3"
b111 a
b111 2"
b11 b
b11 1"
b1100000000000000 =
b1100000000000000 ="
b110 ("
b10 &"
b111 q
1*"
1."
1-"
b110 o
b1110 n
b101 m
b1101 l
b10 k
b1010 j
b1 i
b1001 h
b110 r
b110 /"
b1100 2
b1100 )"
b1100 9"
b1000 3
b1000 '"
b1000 8"
b100 <
b100 p
b100 <"
b1101 6
b1101 |
b1101 5"
b1001 7
b1001 z
b1001 4"
b0 V
b0 R
b0 M
b100000000000000 N
b0 ]
1%
#122000
0%
#124000
b1111 {
b1011 y
b0 D
b100000000000000 E
b0 9
b0 :"
b100 `
b100 3"
b1111 a
b1111 2"
b1011 b
b1011 1"
b1000000000000000000000000000000 =
b1000000000000000000000000000000 ="
b10 $"
b1110 ("
b1010 &"
b0 q
1*"
1."
1-"
b0 :
b0 ;"
b0 U
b0 ;
b0 Q
b1100000000000000 M
b0 N
b1110 o
b101 n
b1101 m
b111 l
b1010 k
b1 j
b1001 i
b11 h
b111 r
b111 /"
b110 2
b110 )"
b110 9"
b10 3
b10 '"
b10 8"
b0 <
b0 p
b0 <"
b111 6
b111 |
b111 5"
b11 7
b11 z
b11 4"
1%
#126000
0%
#128000
b10 {
b0 y
b1100000000000000 D
b0 E
b0 `
b0 3"
b10 a
b10 2"
b0 b
b0 1"
b1100000000000000 =
b1100000000000000 ="
b101 ("
b1 &"
b1 q
1*"
1."
1-"
b101 o
b1101 n
b111 m
b1111 l
b1 k
b1001 j
b11 i
b1011 h
b0 r
b0 /"
b10 %"
b10 0"
b1110 2
b1110 )"
b1110 9"
b1010 3
b1010 '"
b1010 8"
b100 <
b100 p
b100 <"
b1111 6
b1111 |
b1111 5"
b1011 7
b1011 z
b1011 4"
b0 M
b100000000000000 N
1%
#130000
0%
#132000
b1010 {
b1000 y
b0 D
b100000000000000 E
b10 `
b10 3"
b1010 a
b1010 2"
b1000 b
b1000 1"
b1000000000000000000000000000000 =
b1000000000000000000000000000000 ="
b1101 ("
b1001 &"
b10 q
1*"
1."
1-"
b1111111111111 A
b1100000000000000 M
b0 N
b1101 o
b111 n
b1111 m
b10 l
b1001 k
b11 j
b1011 i
b0 h
b1 r
b1 /"
b101 2
b101 )"
b101 9"
b1 3
b1 '"
b1 8"
b0 <
b0 p
b0 <"
b10 6
b10 |
b10 5"
b11111111111110000000000000000 5
b11111111111110000000000000000 6"
b0 7
b0 z
b0 4"
1%
#134000
0%
#136000
b110 {
b100 y
b1101001010111111 D
b10110101000001 E
b100 `
b100 3"
b110 a
b110 2"
b100 b
b100 1"
b101101010000011101001010111111 =
b101101010000011101001010111111 ="
b111 ("
b11 &"
b11 q
1*"
1."
1-"
b111 o
b1111 n
b10 m
b1010 l
b11 k
b1011 j
b0 i
b1000 h
b10 r
b10 /"
b1101 2
b1101 )"
b1101 9"
b1001 3
b1001 '"
b1001 8"
b10 <
b10 p
b10 <"
b1010 6
b1010 |
b1010 5"
b1000 7
b1000 z
b1000 4"
b0 M
b100000000000000 N
b1111111111111 I
b1111111111111 !
b1111111111111 ?
1%
#138000
0%
#140000
b1110 {
b1100 y
b1100000000000000 D
b0 E
b110 `
b110 3"
b1110 a
b1110 2"
b1100 b
b1100 1"
b1100000000000000 =
b1100000000000000 ="
b1111 ("
b1011 &"
b100 q
1*"
1."
1-"
b1111111111111 J
b1101001010111111 M
b10110101000001 N
b1111 o
b10 n
b1010 m
b110 l
b1011 k
b0 j
b1000 i
b100 h
b11 r
b11 /"
b111 2
b111 )"
b111 9"
b11 3
b11 '"
b11 8"
b100 <
b100 p
b100 <"
b110 6
b110 |
b110 5"
b100 7
b100 z
b100 4"
1%
#142000
0%
#144000
b11 {
b1 y
b1101001010111111 D
b1101001010111111 E
b0 `
b0 3"
b11 a
b11 2"
b1 b
b1 1"
b11010010101111111101001010111111 =
b11010010101111111101001010111111 ="
b10 ("
b0 &"
b101 q
1*"
1."
1-"
b10 o
b1010 n
b110 m
b1110 l
b0 k
b1000 j
b100 i
b1100 h
b100 r
b100 /"
b1111 2
b1111 )"
b1111 9"
b1011 3
b1011 '"
b1011 8"
b110 <
b110 p
b110 <"
b1110 6
b1110 |
b1110 5"
b1100 7
b1100 z
b1100 4"
b1111111111111000000000000 V
b1111111111111000000000000 R
b1100000000000000 M
b0 N
1%
#146000
0%
#148000
b1011 {
b1001 y
b0 D
b100000000000000 E
b1111111111110000000000000000 9
b1111111111110000000000000000 :"
b10 `
b10 3"
b1011 a
b1011 2"
b1001 b
b1001 1"
b1000000000000000000000000000000 =
b1000000000000000000000000000000 ="
b1010 ("
b1000 &"
b110 q
1*"
1."
1-"
b0 A
b1111111111110000000000000000 :
b1111111111110000000000000000 ;"
b111111111111 U
b1111111111110000000000000000 ;
b111111111111 Q
b1101001010111111 M
b1101001010111111 N
b1010 o
b110 n
b1110 m
b11 l
b1000 k
b100 j
b1100 i
b1 h
b101 r
b101 /"
b10 2
b10 )"
b10 9"
b0 3
b0 '"
b0 8"
b0 <
b0 p
b0 <"
b11 6
b11 |
b11 5"
b0 5
b0 6"
b1 7
b1 z
b1 4"
b0 ]
1%
#150000
0%
#152000
b111 {
b101 y
b1101001010111111 D
b10110101000001 E
b100 `
b100 3"
b111 a
b111 2"
b101 b
b101 1"
b101101010000011101001010111111 =
b101101010000011101001010111111 ="
b110 ("
b100 &"
b111 q
1*"
1."
1-"
b110 o
b1110 n
b11 m
b1011 l
b100 k
b1100 j
b1 i
b1001 h
b110 r
b110 /"
b1010 2
b1010 )"
b1010 9"
b1000 3
b1000 '"
b1000 8"
b10 <
b10 p
b10 <"
b1011 6
b1011 |
b1011 5"
b1001 7
b1001 z
b1001 4"
b0 M
b100000000000000 N
b0 I
b0 !
b0 ?
b0 ]
1%
#154000
0%
#156000
b1111 {
b1101 y
b1100000000000000 D
b0 E
b110 `
b110 3"
b1111 a
b1111 2"
b1101 b
b1101 1"
b1100000000000000 =
b1100000000000000 ="
b11 $"
b1110 ("
b1100 &"
b0 q
1*"
1."
1-"
b0 J
b1101001010111111 M
b10110101000001 N
b1110 o
b11 n
b1011 m
b111 l
b1100 k
b1 j
b1001 i
b101 h
b111 r
b111 /"
b110 2
b110 )"
b110 9"
b100 3
b100 '"
b100 8"
b100 <
b100 p
b100 <"
b111 6
b111 |
b111 5"
b101 7
b101 z
b101 4"
b0 ]
1%
#158000
0%
#160000
b1 {
b0 y
b1101001010111111 D
b1101001010111111 E
b0 `
b0 3"
b1 a
b1 2"
b0 b
b0 1"
b11010010101111111101001010111111 =
b11010010101111111101001010111111 ="
1}
b11 ("
b1 &"
b0 q
1*"
1."
1-"
b11 o
b1011 n
b111 m
b1111 l
b1 k
b1001 j
b101 i
b1101 h
b0 r
b0 /"
b11 %"
b11 0"
b1110 2
b1110 )"
b1110 9"
b1100 3
b1100 '"
b1100 8"
b110 <
b110 p
b110 <"
b1111 6
b1111 |
b1111 5"
b1101 7
b1101 z
b1101 4"
b0 V
b0 R
b1100000000000000 M
b0 N
b0 ]
1%
#162000
0%
#164000
b0 D
b100000000000000 E
b0 9
b0 :"
b1000000000000000000000000000000 =
b1000000000000000000000000000000 ="
b1011 ("
b1001 &"
b1 q
0}
1*"
1."
1-"
b111111111111 A
b0 :
b0 ;"
b0 U
b0 ;
b0 Q
b1101001010111111 M
b1101001010111111 N
b1011 o
b111 n
b1111 m
b1 l
b1001 k
b101 j
b1101 i
b0 h
1~
b11 2
b11 )"
b11 9"
b1 3
b1 '"
b1 8"
b0 <
b0 p
b0 <"
b1 6
b1 |
b1 5"
b1111111111110000000000000000 5
b1111111111110000000000000000 6"
b0 7
b0 z
b0 4"
1%
#166000
0%
#168000
b1001 {
b1000 y
b1 `
b1 3"
b1001 a
b1001 2"
b1000 b
b1000 1"
b111 ("
b101 &"
b10 q
1*"
1."
1-"
b111 o
b1111 n
b1 m
b101 k
b1101 j
b0 i
1!"
0~
b1 r
b1 /"
b1011 2
b1011 )"
b1011 9"
b1001 3
b1001 '"
b1001 8"
b0 M
b100000000000000 N
b111111111111 I
b111111111111 !
b111111111111 ?
1%
#170000
0%
#172000
b101 {
b100 y
b1110011110000010 D
b11101100100001 E
b10 `
b10 3"
b101 a
b101 2"
b100 b
b100 1"
b111011001000011110011110000010 =
b111011001000011110011110000010 ="
b1111 ("
b1101 &"
b11 q
1*"
1."
1-"
b111111111111 J
b1111 o
b1 n
b1001 l
b1101 k
b0 j
b1000 h
1""
0!"
b10 r
b10 /"
b111 2
b111 )"
b111 9"
b101 3
b101 '"
b101 8"
b1 <
b1 p
b1 <"
b1001 6
b1001 |
b1001 5"
b1000 7
b1000 z
b1000 4"
1%
#174000
0%
#176000
b1101 {
b1100 y
b1101001010111111 D
b10110101000001 E
b11 `
b11 3"
b1101 a
b1101 2"
b1100 b
b1100 1"
b101101010000011101001010111111 =
b101101010000011101001010111111 ="
b1 ("
b0 &"
b100 q
1*"
0."
0-"
b1 o
b1001 m
b101 l
b0 k
b1000 i
b100 h
1#"
0""
b11 r
b11 /"
b1111 2
b1111 )"
b1111 9"
b1101 3
b1101 '"
b1101 8"
b10 <
b10 p
b10 <"
b101 6
b101 |
b101 5"
b100 7
b100 z
b100 4"
b111111111111000000000000 V
b111111111111000000000000 R
b1110011110000010 M
b11101100100001 N
1%
#178000
0%
#180000
b11 {
b10 y
b1100010011011111 D
b1100001111110 E
b111111111110000000000000000 9
b111111111110000000000000000 :"
b100 `
b100 3"
b11 a
b11 2"
b10 b
b10 1"
b11000011111101100010011011111 =
b11000011111101100010011011111 ="
1."
1-"
b101 q
1*"
b111111111110000000000000000 :
b111111111110000000000000000 ;"
b11111111111 U
b111111111110000000000000000 ;
b11111111111 Q
b1101001010111111 M
b10110101000001 N
b1001 n
b101 m
b1101 l
b1000 j
b100 i
b1100 h
0#"
b100 r
b100 /"
0.
b1 2
b1 )"
b1 9"
0/
b0 3
b0 '"
b0 8"
b11 <
b11 p
b11 <"
b1101 6
b1101 |
b1101 5"
b1100 7
b1100 z
b1100 4"
b0 ]
1%
#182000
0%
#184000
b1011 {
b1010 y
b1100000000000000 D
b0 E
b101 `
b101 3"
b1011 a
b1011 2"
b1010 b
b1010 1"
b1100000000000000 =
b1100000000000000 ="
b1001 ("
b1000 &"
b110 q
1*"
1."
1-"
b1001 o
b101 n
b1101 m
b11 l
b1000 k
b100 j
b1100 i
b10 h
b101 r
b101 /"
1.
1/
b100 <
b100 p
b100 <"
b11 6
b11 |
b11 5"
b10 7
b10 z
b10 4"
b1100010011011111 M
b1100001111110 N
b0 ]
1%
#186000
0%
#188000
b111 {
b110 y
b1100010011011111 D
b1110011110000010 E
b110 `
b110 3"
b111 a
b111 2"
b110 b
b110 1"
b11100111100000101100010011011111 =
b11100111100000101100010011011111 ="
b101 ("
b100 &"
b111 q
1*"
1."
1-"
b1100000000000000 M
b0 N
b101 o
b1101 n
b11 m
b1011 l
b100 k
b1100 j
b10 i
b1010 h
b110 r
b110 /"
b1001 2
b1001 )"
b1001 9"
b1000 3
b1000 '"
b1000 8"
b101 <
b101 p
b101 <"
b1011 6
b1011 |
b1011 5"
b1010 7
b1010 z
b1010 4"
b0 ]
1%
#190000
0%
